<?xml version="1.0" encoding="UTF-8" standalone="no"?>
<gpx
  version="1.1"
  creator="gpst - http://sunny256.github.com/gpstools/"
  xmlns="http://www.topografix.com/GPX/1/1"
  xmlns:xsi="http://www.w3.org/2001/XMLSchema-instance"
  xsi:schemaLocation="http://www.topografix.com/GPX/1/1 http://www.topografix.com/GPX/1/1/gpx.xsd"
>
  <trk>
    <trkseg>
      <trkpt lat="51.4838161" lon="0.0000533">
        <time>2003-02-11T12:17:05Z</time>
      </trkpt>
      <trkpt lat="51.4837770" lon="-0.0000211">
        <ele>3.00000009</ele>
        <time>2003-02-11T12:17:15Z</time>
      </trkpt>
      <trkpt lat="51.4837543" lon="-0.0000894">
        <ele>0.00150002</ele>
        <time>2003-02-11T12:17:21Z</time>
      </trkpt>
      <trkpt lat="51.4836222" lon="0.0000272">
        <time>2003-02-11T12:27:41Z</time>
      </trkpt>
    </trkseg>
  </trk>
</gpx>
